\relax 
\@writefile{toc}{\contentsline {section}{\numberline {1}Dealing}{1}}
\@writefile{toc}{\contentsline {section}{\numberline {2}Future discussion points}{2}}
\@writefile{toc}{\contentsline {section}{\numberline {3}Notes}{3}}
\@writefile{toc}{\contentsline {subsection}{\numberline {3.1}Data Management}{3}}
\@writefile{toc}{\contentsline {subsection}{\numberline {3.2}Others}{7}}
\@writefile{lot}{\contentsline {table}{\numberline {1}{\ignorespaces Job vs Task}}{9}}
\newlabel{table:nonlin3}{{1}{9}}
