4096	0.291 0.525 0.376 0.333 0.200 0.100 
8192	0.649 0.775 0.506 0.497 0.400 0.100 
16384	1.504 1.405 0.829 0.875 1.000 0.100 
30720	3.328 2.157 1.214 1.357 2.200 0.200 
65536	8.315 4.109 2.173 2.669 5.600 0.500 
131072	19.477 7.115 3.791 5.781 12.900 1.100 
262144	42.589 13.633 7.157 12.926 30.900 2.100 
524288	103.852 32.475 17.160 31.438 81.500 4.300 
