4096	0.55 1.15 0.62 0.57 0.4	0.1	
8192	1.33 1.93 1.03 1.01 1.0	0.1	
16384	3.31 3.59 1.90 1.86 2.5	0.2	
30720	7.66 5.79 3.07 2.95 5.9	0.3	
65536	20.95 10.88 5.80 6.68 16.4	0.6	
131072	49.50 18.02 9.79 14.91 37.9	1.1	
262144	121.61 34.31 19.06 35.71 88.3	2.3	
524288	293.00 70.46 39.30 85.48 194.8	4.6	
