4096	
RR_DUM 20.9 20.8 0.0 0.0 86 0.4 20.5 20.2 85 0.4 20.6 20.3 85 
WRAND_DUM 3.0 2.9 0.0 0.0 11 0.6 2.4 2.0 124 0.6 2.4 0.0 121 
DD_DUM 1.6 1.4 0.0 0.0 5 0.5 1.1 0.7 124 0.6 1.0 0.7 127 
RR_DUM 1.7 1.5 0.0 0.0 86 0.4 1.3 1.1 85 0.3 1.4 1.1 85 
WRAND_DUM 0.7 0.3 0.3 0.2 17 0.6 0.2 0.0 134 0.5 0.3 0.1 105 
DD_DUM 0.8 0.5 0.0 0.0 32 0.5 0.3 0.0 113 0.5 0.2 0.0 111 
