/home/rr/work/perform/PERFORM/data/32.jpg	0.009 0.112 0.149 0.013 0.016 0.115 0.196 0.024 0.000 0.010 
/home/rr/work/perform/PERFORM/data/64.jpg	0.014 0.147 0.167 0.022 0.021 0.119 0.200 0.043 0.000 0.010 
/home/rr/work/perform/PERFORM/data/128.jpg	0.031 0.241 0.221 0.052 0.036 0.136 0.213 0.075 0.000 0.010 
/home/rr/work/perform/PERFORM/data/256.jpg	0.109 0.548 0.388 0.183 0.126 0.211 0.272 0.188 0.010 0.050 
/home/rr/work/perform/PERFORM/data/512.jpg	0.454 1.572 1.008 0.759 0.397 0.502 0.462 0.423 0.030 0.260 
/home/rr/work/perform/PERFORM/data/1024.jpg	1.838 6.635 3.781 3.401 1.479 1.636 1.335 1.219 0.110 1.160 
