/home/rr/work/perform/PERFORM/data/32.jpg	0.008 0.112 0.149 0.141 0.015 0.115 0.206 0.195 0.000 0.010 
/home/rr/work/perform/PERFORM/data/64.jpg	0.013 0.146 0.172 0.159 0.022 0.119 0.201 0.215 0.000 0.010 
/home/rr/work/perform/PERFORM/data/128.jpg	0.030 0.239 0.218 0.194 0.038 0.136 0.216 0.227 0.000 0.010 
/home/rr/work/perform/PERFORM/data/256.jpg	0.109 0.544 0.389 0.317 0.122 0.209 0.267 0.280 0.010 0.060 
/home/rr/work/perform/PERFORM/data/512.jpg	0.454 1.570 0.990 0.758 0.455 0.492 0.462 0.468 0.030 0.260 
/home/rr/work/perform/PERFORM/data/1024.jpg	1.841 6.590 3.792 2.770 1.434 1.625 1.285 1.292 0.110 1.170 
