2048	1989.5 92181.5 123658.5 66922.7 26567.2 38620.2 62567.1 60907.0 79708.0 359419.5 
4096	2306.7 162134.3 259828.6 112306.2 34419.8 134473.3 207035.6 194835.6 80429.0 504039.6 
6144	2344.9 199609.0 330920.4 153014.6 34333.5 291716.6 422150.1 369594.1 80699.6 605968.8 
8192	2357.7 193413.2 372001.4 161234.7 37846.4 372609.3 609567.9 504880.3 80527.9 644012.9 
10240	2373.3 222728.8 430615.6 172002.4 36052.4 368971.0 634288.4 552527.3 80786.1 668897.1 
12288	2377.7 223261.9 435193.4 237132.0 34554.2 529744.5 862771.1 721085.9 80712.8 inf 
