[1;31m src/dcd.cpp [1;32m main [1;33m 0112 [0m: input                : dataset/news20.binary.bin
[1;31m src/dcd.cpp [1;32m read_input [1;33m 0226 [0m: l (# of instances)   :      19996
[1;31m src/dcd.cpp [1;32m read_input [1;33m 0227 [0m: n (# of features)    :    1355191
[1;31m src/dcd.cpp [1;32m read_input [1;33m 0228 [0m: avg feat / inst      :     454.99
[1;31m src/dcd.cpp [1;32m read_input [1;33m 0229 [0m: avg feat freq        :       6.71
[1;31m src/dcd.cpp [1;32m main [1;33m 0137 [0m: epsilon              : 0.1
[1;31m src/dcd.cpp [1;32m main [1;33m 0138 [0m: iteration            : 128
[1;31m src/dcd.cpp [1;32m main [1;33m 0139 [0m: thread               : 512
[1;31m src/dcd.cpp [1;32m read_input [1;33m 0226 [0m: l (# of instances)   :      19996
[1;31m src/dcd.cpp [1;32m read_input [1;33m 0227 [0m: n (# of features)    :    1355191
[1;31m src/dcd.cpp [1;32m read_input [1;33m 0228 [0m: avg feat / inst      :     454.99
[1;31m src/dcd.cpp [1;32m read_input [1;33m 0229 [0m: avg feat freq        :       6.71
[1;31m src/SVM_DCD_CUDA.cu [1;32m svm_dcd_iter_gpu [1;33m 0273 [0m: Lounching SVM Simple kernel geometry 16 blocks 32 threads/block
[1;31m src/SVM_DCD_CUDA.cu [1;32m svm_dcd_iter_gpu [1;33m 0309 [0m: # of thread 512: iteration 128 of 128
[1;31m src/SVM_DCD_CUDA.cu [1;32m svm_dcd_iter_gpu [1;33m 0311 [0m: # of thread 512: Main loop takes 12.521 sec 
[1;31m src/dcd.cpp [1;32m main [1;33m 0161 [0m: DCD_SVM_multi_lockfree. # of thread CUDA: Validate 87.90 %
[1;31m src/dcd.cpp [1;32m main [1;33m 0112 [0m: input                : dataset/news20.binary.bin
[1;31m src/dcd.cpp [1;32m read_input [1;33m 0226 [0m: l (# of instances)   :      19996
[1;31m src/dcd.cpp [1;32m read_input [1;33m 0227 [0m: n (# of features)    :    1355191
[1;31m src/dcd.cpp [1;32m read_input [1;33m 0228 [0m: avg feat / inst      :     454.99
[1;31m src/dcd.cpp [1;32m read_input [1;33m 0229 [0m: avg feat freq        :       6.71
[1;31m src/dcd.cpp [1;32m main [1;33m 0137 [0m: epsilon              : 0.1
[1;31m src/dcd.cpp [1;32m main [1;33m 0138 [0m: iteration            : 128
[1;31m src/dcd.cpp [1;32m main [1;33m 0139 [0m: thread               : 512
[1;31m src/dcd.cpp [1;32m read_input [1;33m 0226 [0m: l (# of instances)   :      19996
[1;31m src/dcd.cpp [1;32m read_input [1;33m 0227 [0m: n (# of features)    :    1355191
[1;31m src/dcd.cpp [1;32m read_input [1;33m 0228 [0m: avg feat / inst      :     454.99
[1;31m src/dcd.cpp [1;32m read_input [1;33m 0229 [0m: avg feat freq        :       6.71
[1;31m src/SVM_DCD_CUDA.cu [1;32m svm_dcd_iter_gpu [1;33m 0273 [0m: Lounching SVM Simple kernel geometry 16 blocks 32 threads/block
[1;31m src/SVM_DCD_CUDA.cu [1;32m svm_dcd_iter_gpu [1;33m 0309 [0m: # of thread 512: iteration 128 of 128
[1;31m src/SVM_DCD_CUDA.cu [1;32m svm_dcd_iter_gpu [1;33m 0311 [0m: # of thread 512: Main loop takes 12.549 sec 
[1;31m src/dcd.cpp [1;32m main [1;33m 0161 [0m: DCD_SVM_multi_lockfree. # of thread CUDA: Validate 90.56 %
[1;31m src/dcd.cpp [1;32m main [1;33m 0112 [0m: input                : dataset/news20.binary.bin
[1;31m src/dcd.cpp [1;32m read_input [1;33m 0226 [0m: l (# of instances)   :      19996
[1;31m src/dcd.cpp [1;32m read_input [1;33m 0227 [0m: n (# of features)    :    1355191
[1;31m src/dcd.cpp [1;32m read_input [1;33m 0228 [0m: avg feat / inst      :     454.99
[1;31m src/dcd.cpp [1;32m read_input [1;33m 0229 [0m: avg feat freq        :       6.71
[1;31m src/dcd.cpp [1;32m main [1;33m 0137 [0m: epsilon              : 0.1
[1;31m src/dcd.cpp [1;32m main [1;33m 0138 [0m: iteration            : 128
[1;31m src/dcd.cpp [1;32m main [1;33m 0139 [0m: thread               : 512
[1;31m src/dcd.cpp [1;32m read_input [1;33m 0226 [0m: l (# of instances)   :      19996
[1;31m src/dcd.cpp [1;32m read_input [1;33m 0227 [0m: n (# of features)    :    1355191
[1;31m src/dcd.cpp [1;32m read_input [1;33m 0228 [0m: avg feat / inst      :     454.99
[1;31m src/dcd.cpp [1;32m read_input [1;33m 0229 [0m: avg feat freq        :       6.71
[1;31m src/SVM_DCD_CUDA.cu [1;32m svm_dcd_iter_gpu [1;33m 0273 [0m: Lounching SVM Simple kernel geometry 16 blocks 32 threads/block
[1;31m src/SVM_DCD_CUDA.cu [1;32m svm_dcd_iter_gpu [1;33m 0309 [0m: # of thread 512: iteration 128 of 128
[1;31m src/SVM_DCD_CUDA.cu [1;32m svm_dcd_iter_gpu [1;33m 0311 [0m: # of thread 512: Main loop takes 12.509 sec 
[1;31m src/dcd.cpp [1;32m main [1;33m 0161 [0m: DCD_SVM_multi_lockfree. # of thread CUDA: Validate 85.21 %
[1;31m src/dcd.cpp [1;32m main [1;33m 0112 [0m: input                : dataset/news20.binary.bin
[1;31m src/dcd.cpp [1;32m read_input [1;33m 0226 [0m: l (# of instances)   :      19996
[1;31m src/dcd.cpp [1;32m read_input [1;33m 0227 [0m: n (# of features)    :    1355191
[1;31m src/dcd.cpp [1;32m read_input [1;33m 0228 [0m: avg feat / inst      :     454.99
[1;31m src/dcd.cpp [1;32m read_input [1;33m 0229 [0m: avg feat freq        :       6.71
[1;31m src/dcd.cpp [1;32m main [1;33m 0137 [0m: epsilon              : 0.1
[1;31m src/dcd.cpp [1;32m main [1;33m 0138 [0m: iteration            : 128
[1;31m src/dcd.cpp [1;32m main [1;33m 0139 [0m: thread               : 512
[1;31m src/dcd.cpp [1;32m read_input [1;33m 0226 [0m: l (# of instances)   :      19996
[1;31m src/dcd.cpp [1;32m read_input [1;33m 0227 [0m: n (# of features)    :    1355191
[1;31m src/dcd.cpp [1;32m read_input [1;33m 0228 [0m: avg feat / inst      :     454.99
[1;31m src/dcd.cpp [1;32m read_input [1;33m 0229 [0m: avg feat freq        :       6.71
[1;31m src/SVM_DCD_CUDA.cu [1;32m svm_dcd_iter_gpu [1;33m 0273 [0m: Lounching SVM Simple kernel geometry 16 blocks 32 threads/block
[1;31m src/SVM_DCD_CUDA.cu [1;32m svm_dcd_iter_gpu [1;33m 0309 [0m: # of thread 512: iteration 128 of 128
[1;31m src/SVM_DCD_CUDA.cu [1;32m svm_dcd_iter_gpu [1;33m 0311 [0m: # of thread 512: Main loop takes 12.485 sec 
[1;31m src/dcd.cpp [1;32m main [1;33m 0161 [0m: DCD_SVM_multi_lockfree. # of thread CUDA: Validate 84.75 %
[1;31m src/dcd.cpp [1;32m main [1;33m 0112 [0m: input                : dataset/news20.binary.bin
[1;31m src/dcd.cpp [1;32m read_input [1;33m 0226 [0m: l (# of instances)   :      19996
[1;31m src/dcd.cpp [1;32m read_input [1;33m 0227 [0m: n (# of features)    :    1355191
[1;31m src/dcd.cpp [1;32m read_input [1;33m 0228 [0m: avg feat / inst      :     454.99
[1;31m src/dcd.cpp [1;32m read_input [1;33m 0229 [0m: avg feat freq        :       6.71
[1;31m src/dcd.cpp [1;32m main [1;33m 0137 [0m: epsilon              : 0.1
[1;31m src/dcd.cpp [1;32m main [1;33m 0138 [0m: iteration            : 128
[1;31m src/dcd.cpp [1;32m main [1;33m 0139 [0m: thread               : 512
[1;31m src/dcd.cpp [1;32m read_input [1;33m 0226 [0m: l (# of instances)   :      19996
[1;31m src/dcd.cpp [1;32m read_input [1;33m 0227 [0m: n (# of features)    :    1355191
[1;31m src/dcd.cpp [1;32m read_input [1;33m 0228 [0m: avg feat / inst      :     454.99
[1;31m src/dcd.cpp [1;32m read_input [1;33m 0229 [0m: avg feat freq        :       6.71
[1;31m src/SVM_DCD_CUDA.cu [1;32m svm_dcd_iter_gpu [1;33m 0273 [0m: Lounching SVM Simple kernel geometry 16 blocks 32 threads/block
[1;31m src/SVM_DCD_CUDA.cu [1;32m svm_dcd_iter_gpu [1;33m 0309 [0m: # of thread 512: iteration 128 of 128
[1;31m src/SVM_DCD_CUDA.cu [1;32m svm_dcd_iter_gpu [1;33m 0311 [0m: # of thread 512: Main loop takes 12.556 sec 
[1;31m src/dcd.cpp [1;32m main [1;33m 0161 [0m: DCD_SVM_multi_lockfree. # of thread CUDA: Validate 89.08 %
