1	3851785743	407.649	9.45	3851227341	252.701	15.24	
2	1172839366	31.1435	37.66	1173964891	20.9649	56.00	
3	1201764600	108.174	11.11	1202443485	73.2772	16.41	
4	2353597633	616.261	3.82	2352509250	512.599	4.59	
5	3088838952	603.828	5.12	3103146437	529.284	5.86	
6	3344844497	804.604	4.16	3344580115	650.641	5.14	
7	4289872053	423.056	10.14	4289618028	278.335	15.41	
