2048	154596.72 244382.84 6592.37 30334.21 117272.73 190261.79 73866.16 39135.8 360860.60 
4096	187900.60 343674.71 6809.31 33188.43 321877.90 503586.96 106397.73 79850.3 504904.00 
6144	222344.73 419867.00 6910.46 38989.51 500740.51 801948.19 106886.12 36500.7 606248.49 
8192	207575.26 399804.53 6893.83 39399.85 482361.92 829311.94 113384.92 80592.6 644346.90 
10240	230840.46 446531.74 6987.71 35767.10 561326.49 982790.03 102448.56 80865.8 668954.45 
12288	229713.03 446513.98 6964.43 36913.95 609089.93 1112068.24 116734.16 80720.2 inf 
