2048	0.14 0.15 0.42 0.54 0.23 0.31 0.31 0.28 0.05 
4096	0.73 0.40 2.01 3.91 0.43 0.28 0.39 1.71 0.27 
6144	2.09 1.11 6.39 12.84 0.93 0.58 0.76 5.75 0.77 
8192	5.30 2.75 15.27 29.99 2.28 1.31 2.17 13.61 1.71 
10240	9.31 4.81 29.22 60.68 3.83 2.17 2.90 26.56 3.21 
12288	16.17 8.33 50.36 98.94 6.07 3.17 4.82 45.94 0.00 
