2048	0.14 0.15 2.64 0.54 0.23 0.28 0.35 0.21 0.05 
4096	0.73 0.40 20.03 3.90 0.43 0.26 1.39 1.71 0.27 
6144	2.09 1.11 67.16 11.92 0.93 0.55 4.58 5.75 0.77 
8192	5.30 2.75 157.88 29.91 2.28 1.27 10.42 13.65 1.71 
10240	9.31 4.81 306.63 60.30 3.83 2.12 20.89 26.56 3.21 
12288	16.17 8.27 532.64 101.19 6.09 3.11 34.38 45.92 0.00 
