[1;31m src/dcd.cpp [1;32m main [1;33m 0112 [0m: input                : dataset/news20.binary.bin
[1;31m src/dcd.cpp [1;32m read_input [1;33m 0226 [0m: l (# of instances)   :      19996
[1;31m src/dcd.cpp [1;32m read_input [1;33m 0227 [0m: n (# of features)    :    1355191
[1;31m src/dcd.cpp [1;32m read_input [1;33m 0228 [0m: avg feat / inst      :     454.99
[1;31m src/dcd.cpp [1;32m read_input [1;33m 0229 [0m: avg feat freq        :       6.71
[1;31m src/dcd.cpp [1;32m main [1;33m 0137 [0m: epsilon              : 1e-07
[1;31m src/dcd.cpp [1;32m main [1;33m 0138 [0m: iteration            : 64
[1;31m src/dcd.cpp [1;32m main [1;33m 0139 [0m: thread               : 8192
[1;31m src/dcd.cpp [1;32m read_input [1;33m 0226 [0m: l (# of instances)   :      19996
[1;31m src/dcd.cpp [1;32m read_input [1;33m 0227 [0m: n (# of features)    :    1355191
[1;31m src/dcd.cpp [1;32m read_input [1;33m 0228 [0m: avg feat / inst      :     454.99
[1;31m src/dcd.cpp [1;32m read_input [1;33m 0229 [0m: avg feat freq        :       6.71
[1;31m src/SVM_DCD_CUDA.cu [1;32m svm_dcd_iter_gpu [1;33m 0277 [0m: Lounching SVM Vector kernel geometry 32 blocks 256 threads/block
[1;31m src/SVM_DCD_CUDA.cu [1;32m svm_dcd_iter_gpu [1;33m 0309 [0m: # of thread 8192: iteration 64 of 64
[1;31m src/SVM_DCD_CUDA.cu [1;32m svm_dcd_iter_gpu [1;33m 0311 [0m: # of thread 8192: Main loop takes 0.569 sec 
[1;31m src/dcd.cpp [1;32m main [1;33m 0161 [0m: DCD_SVM_multi_lockfree. # of thread CUDA: Validate 92.93 %
[1;31m src/dcd.cpp [1;32m main [1;33m 0112 [0m: input                : dataset/news20.binary.bin
[1;31m src/dcd.cpp [1;32m read_input [1;33m 0226 [0m: l (# of instances)   :      19996
[1;31m src/dcd.cpp [1;32m read_input [1;33m 0227 [0m: n (# of features)    :    1355191
[1;31m src/dcd.cpp [1;32m read_input [1;33m 0228 [0m: avg feat / inst      :     454.99
[1;31m src/dcd.cpp [1;32m read_input [1;33m 0229 [0m: avg feat freq        :       6.71
[1;31m src/dcd.cpp [1;32m main [1;33m 0137 [0m: epsilon              : 1e-07
[1;31m src/dcd.cpp [1;32m main [1;33m 0138 [0m: iteration            : 64
[1;31m src/dcd.cpp [1;32m main [1;33m 0139 [0m: thread               : 8192
[1;31m src/dcd.cpp [1;32m read_input [1;33m 0226 [0m: l (# of instances)   :      19996
[1;31m src/dcd.cpp [1;32m read_input [1;33m 0227 [0m: n (# of features)    :    1355191
[1;31m src/dcd.cpp [1;32m read_input [1;33m 0228 [0m: avg feat / inst      :     454.99
[1;31m src/dcd.cpp [1;32m read_input [1;33m 0229 [0m: avg feat freq        :       6.71
[1;31m src/SVM_DCD_CUDA.cu [1;32m svm_dcd_iter_gpu [1;33m 0277 [0m: Lounching SVM Vector kernel geometry 32 blocks 256 threads/block
[1;31m src/SVM_DCD_CUDA.cu [1;32m svm_dcd_iter_gpu [1;33m 0309 [0m: # of thread 8192: iteration 64 of 64
[1;31m src/SVM_DCD_CUDA.cu [1;32m svm_dcd_iter_gpu [1;33m 0311 [0m: # of thread 8192: Main loop takes 0.569 sec 
[1;31m src/dcd.cpp [1;32m main [1;33m 0161 [0m: DCD_SVM_multi_lockfree. # of thread CUDA: Validate 92.42 %
[1;31m src/dcd.cpp [1;32m main [1;33m 0112 [0m: input                : dataset/news20.binary.bin
[1;31m src/dcd.cpp [1;32m read_input [1;33m 0226 [0m: l (# of instances)   :      19996
[1;31m src/dcd.cpp [1;32m read_input [1;33m 0227 [0m: n (# of features)    :    1355191
[1;31m src/dcd.cpp [1;32m read_input [1;33m 0228 [0m: avg feat / inst      :     454.99
[1;31m src/dcd.cpp [1;32m read_input [1;33m 0229 [0m: avg feat freq        :       6.71
[1;31m src/dcd.cpp [1;32m main [1;33m 0137 [0m: epsilon              : 1e-07
[1;31m src/dcd.cpp [1;32m main [1;33m 0138 [0m: iteration            : 64
[1;31m src/dcd.cpp [1;32m main [1;33m 0139 [0m: thread               : 8192
[1;31m src/dcd.cpp [1;32m read_input [1;33m 0226 [0m: l (# of instances)   :      19996
[1;31m src/dcd.cpp [1;32m read_input [1;33m 0227 [0m: n (# of features)    :    1355191
[1;31m src/dcd.cpp [1;32m read_input [1;33m 0228 [0m: avg feat / inst      :     454.99
[1;31m src/dcd.cpp [1;32m read_input [1;33m 0229 [0m: avg feat freq        :       6.71
[1;31m src/SVM_DCD_CUDA.cu [1;32m svm_dcd_iter_gpu [1;33m 0277 [0m: Lounching SVM Vector kernel geometry 32 blocks 256 threads/block
[1;31m src/SVM_DCD_CUDA.cu [1;32m svm_dcd_iter_gpu [1;33m 0309 [0m: # of thread 8192: iteration 64 of 64
[1;31m src/SVM_DCD_CUDA.cu [1;32m svm_dcd_iter_gpu [1;33m 0311 [0m: # of thread 8192: Main loop takes 0.570 sec 
[1;31m src/dcd.cpp [1;32m main [1;33m 0161 [0m: DCD_SVM_multi_lockfree. # of thread CUDA: Validate 93.65 %
[1;31m src/dcd.cpp [1;32m main [1;33m 0112 [0m: input                : dataset/news20.binary.bin
[1;31m src/dcd.cpp [1;32m read_input [1;33m 0226 [0m: l (# of instances)   :      19996
[1;31m src/dcd.cpp [1;32m read_input [1;33m 0227 [0m: n (# of features)    :    1355191
[1;31m src/dcd.cpp [1;32m read_input [1;33m 0228 [0m: avg feat / inst      :     454.99
[1;31m src/dcd.cpp [1;32m read_input [1;33m 0229 [0m: avg feat freq        :       6.71
[1;31m src/dcd.cpp [1;32m main [1;33m 0137 [0m: epsilon              : 1e-07
[1;31m src/dcd.cpp [1;32m main [1;33m 0138 [0m: iteration            : 64
[1;31m src/dcd.cpp [1;32m main [1;33m 0139 [0m: thread               : 8192
[1;31m src/dcd.cpp [1;32m read_input [1;33m 0226 [0m: l (# of instances)   :      19996
[1;31m src/dcd.cpp [1;32m read_input [1;33m 0227 [0m: n (# of features)    :    1355191
[1;31m src/dcd.cpp [1;32m read_input [1;33m 0228 [0m: avg feat / inst      :     454.99
[1;31m src/dcd.cpp [1;32m read_input [1;33m 0229 [0m: avg feat freq        :       6.71
[1;31m src/SVM_DCD_CUDA.cu [1;32m svm_dcd_iter_gpu [1;33m 0277 [0m: Lounching SVM Vector kernel geometry 32 blocks 256 threads/block
[1;31m src/SVM_DCD_CUDA.cu [1;32m svm_dcd_iter_gpu [1;33m 0309 [0m: # of thread 8192: iteration 64 of 64
[1;31m src/SVM_DCD_CUDA.cu [1;32m svm_dcd_iter_gpu [1;33m 0311 [0m: # of thread 8192: Main loop takes 0.571 sec 
[1;31m src/dcd.cpp [1;32m main [1;33m 0161 [0m: DCD_SVM_multi_lockfree. # of thread CUDA: Validate 94.12 %
[1;31m src/dcd.cpp [1;32m main [1;33m 0112 [0m: input                : dataset/news20.binary.bin
[1;31m src/dcd.cpp [1;32m read_input [1;33m 0226 [0m: l (# of instances)   :      19996
[1;31m src/dcd.cpp [1;32m read_input [1;33m 0227 [0m: n (# of features)    :    1355191
[1;31m src/dcd.cpp [1;32m read_input [1;33m 0228 [0m: avg feat / inst      :     454.99
[1;31m src/dcd.cpp [1;32m read_input [1;33m 0229 [0m: avg feat freq        :       6.71
[1;31m src/dcd.cpp [1;32m main [1;33m 0137 [0m: epsilon              : 1e-07
[1;31m src/dcd.cpp [1;32m main [1;33m 0138 [0m: iteration            : 64
[1;31m src/dcd.cpp [1;32m main [1;33m 0139 [0m: thread               : 8192
[1;31m src/dcd.cpp [1;32m read_input [1;33m 0226 [0m: l (# of instances)   :      19996
[1;31m src/dcd.cpp [1;32m read_input [1;33m 0227 [0m: n (# of features)    :    1355191
[1;31m src/dcd.cpp [1;32m read_input [1;33m 0228 [0m: avg feat / inst      :     454.99
[1;31m src/dcd.cpp [1;32m read_input [1;33m 0229 [0m: avg feat freq        :       6.71
[1;31m src/SVM_DCD_CUDA.cu [1;32m svm_dcd_iter_gpu [1;33m 0277 [0m: Lounching SVM Vector kernel geometry 32 blocks 256 threads/block
[1;31m src/SVM_DCD_CUDA.cu [1;32m svm_dcd_iter_gpu [1;33m 0309 [0m: # of thread 8192: iteration 64 of 64
[1;31m src/SVM_DCD_CUDA.cu [1;32m svm_dcd_iter_gpu [1;33m 0311 [0m: # of thread 8192: Main loop takes 0.570 sec 
[1;31m src/dcd.cpp [1;32m main [1;33m 0161 [0m: DCD_SVM_multi_lockfree. # of thread CUDA: Validate 92.52 %
