SIZES	1	4	16	25	36	64	81	100	

BIN1: /home/rr/work/perform/PERFORM/pathtracer_FullT_RELEASE/PERFORM 0 1 0 512 512


BIN2: /home/rr/work/perform/PERFORM/pathtracer_UBK_FineT_SIMD32_RELEASE/PERFORM 0 1 0 512 512


