shadow1.h	117049146	12.7242	9.20	117059764	8.96008	13.06	
shadow4.h	250221967	26.6686	9.38	250460062	18.4391	13.58	
shadow8.h	427707535	45.2865	9.44	427542627	30.9058	13.83	
shadow16.h	782726815	82.7551	9.46	782879594	56.0533	13.97	
shadow32.h	1492945721	157.247	9.49	1493083617	106.111	14.07	
shadow64.h	2913388517	307.235	9.48	2911613603	206.236	14.12	
